[
  {
    "id": 4,
    "name": "Fighting",
    "slug": "fighting",
    "checksum": "2ccc6572-bdde-6ed4-8843-25447ea40782"
  },
  {
    "id": 5,
    "name": "Shooter",
    "slug": "shooter",
    "checksum": "bb15fd3f-0f46-e5f3-2b40-d046cf9bd2ef"
  },
  {
    "id": 7,
    "name": "Music",
    "slug": "music",
    "checksum": "22d44a0d-89c7-580f-eef2-e06f178fdd47"
  },
  {
    "id": 8,
    "name": "Platform",
    "slug": "platform",
    "checksum": "697fc5a4-b96f-a803-288a-498bd5dd1de1"
  },
  {
    "id": 9,
    "name": "Puzzle",
    "slug": "puzzle",
    "checksum": "616de9c3-8a00-0232-9df9-00014cfac51b"
  },
  {
    "id": 10,
    "name": "Racing",
    "slug": "racing",
    "checksum": "73c2653f-54d8-c1bd-d523-dd57fb753194"
  },
  {
    "id": 11,
    "name": "Real Time Strategy (RTS)",
    "slug": "real-time-strategy-rts",
    "checksum": "aaa36cbc-2258-8653-a461-1358df8ce445"
  },
  {
    "id": 12,
    "name": "Role-playing (RPG)",
    "slug": "role-playing-rpg",
    "checksum": "42dea3b2-7fe2-e734-91cd-f80ce62a14c3"
  },
  {
    "id": 13,
    "name": "Simulator",
    "slug": "simulator",
    "checksum": "9779772a-f08f-9e8e-bd26-70c9eecc34e8"
  },
  {
    "id": 14,
    "name": "Sport",
    "slug": "sport",
    "checksum": "e598c458-3e21-7a14-50a5-ea53733ab22f"
  },
  {
    "id": 15,
    "name": "Strategy",
    "slug": "strategy",
    "checksum": "d7863f95-0f2c-0f2d-c1e9-29d06eaf3396"
  },
  {
    "id": 16,
    "name": "Turn-based strategy (TBS)",
    "slug": "turn-based-strategy-tbs",
    "checksum": "af5d3ecd-2ebd-358b-70df-e9204b9761be"
  },
  {
    "id": 24,
    "name": "Tactical",
    "slug": "tactical",
    "checksum": "6132b15f-289e-60ea-5957-7c78b97053a2"
  },
  {
    "id": 25,
    "name": "Hack and slash/Beat 'em up",
    "slug": "hack-and-slash-beat-em-up",
    "checksum": "4bd95a5d-8fa1-1aee-4ea9-224b4b1312f7"
  },
  {
    "id": 31,
    "name": "Adventure",
    "slug": "adventure",
    "checksum": "a6d85192-8d11-bad3-cc5c-dd89e2f94a47"
  },
  {
    "id": 33,
    "name": "Arcade",
    "slug": "arcade",
    "checksum": "388cec36-d099-f4a1-31c3-f938fae9067b"
  },
  {
    "id": 34,
    "name": "Visual Novel",
    "slug": "visual-novel",
    "checksum": "137fe5c7-e4bc-1c30-4c7c-54596b47448f"
  },
  {
    "id": 32,
    "name": "Indie",
    "slug": "indie",
    "checksum": "2522259f-2454-ec02-5dc0-84373e0508ed"
  },
  {
    "id": 35,
    "name": "Card & Board Game",
    "slug": "card-and-board-game",
    "checksum": "137bcfbe-be08-0b36-b66e-1bfef14ca49a"
  },
  {
    "id": 36,
    "name": "MOBA",
    "slug": "moba",
    "checksum": "0f17b3a1-6d97-4c02-0997-850adf4dc624"
  },
  {
    "id": 2,
    "name": "Point-and-click",
    "slug": "point-and-click",
    "checksum": "ef2ff68a-f7bd-d2d0-76cb-c830bd6e3191"
  }
]