[
  {
    "id": 6,
    "abbreviation": "PC",
    "alternative_name": "mswin",
    "category": 4,
    "name": "PC (Microsoft Windows)",
    "platform_logo": 203,
    "slug": "win",
    "year_released": 1985,
    "manufacturer": "Microsoft",
    "platform_image_url": "https://images.igdb.com/igdb/image/upload/t_1080p/irwvwpl023f8y19tidgq.png"
  },
  {
    "id": 130,
    "abbreviation": "Switch",
    "alternative_name": "NX",
    "category": 1,
    "generation": 8,
    "name": "Nintendo Switch",
    "platform_logo": 534,
    "platform_family": 5,
    "slug": "switch",
    "year_released": 2017,
    "manufacturer": "Nintendo",
    "platform_image_url": "https://images.igdb.com/igdb/image/upload/t_1080p/pleu.png"
  },
  {
    "id": 48,
    "abbreviation": "PS4",
    "alternative_name": "PS4",
    "category": 1,
    "generation": 8,
    "name": "PlayStation 4",
    "platform_logo": 231,
    "platform_family": 1,
    "slug": "ps4",
    "year_released": 2013,
    "manufacturer": "Sony",
    "platform_image_url": "https://images.igdb.com/igdb/image/upload/t_1080p/pl6f.png"
  },
  {
    "id": 49,
    "abbreviation": "XONE",
    "alternative_name": "Xbone",
    "category": 1,
    "generation": 8,
    "name": "Xbox One",
    "platform_logo": 329,
    "platform_family": 2,
    "slug": "xboxone",
    "year_released": 2013,
    "manufacturer": "Microsoft",
    "platform_image_url": "https://images.igdb.com/igdb/image/upload/t_1080p/pl95.png"
  },
  {
    "id": 167,
    "abbreviation": "PS5",
    "alternative_name": "PS5",
    "category": 1,
    "generation": 9,
    "name": "PlayStation 5",
    "platform_logo": 463,
    "platform_family": 1,
    "slug": "ps5",
    "year_released": 2020,
    "manufacturer": "Sony",
    "platform_image_url": "https://images.igdb.com/igdb/image/upload/t_1080p/plcv.png"
  },
  {
    "id": 169,
    "abbreviation": "Series X",
    "alternative_name": "Series X",
    "category": 1,
    "generation": 9,
    "name": "Xbox Series X",
    "platform_logo": 561,
    "platform_family": 2,
    "slug": "series-x",
    "year_released": 2020,
    "manufacturer": "Microsoft",
    "platform_image_url": "https://images.igdb.com/igdb/image/upload/t_1080p/plfl.png"
  }
]
